{
  "accounts": [
    {
      "orca_id":  1,
      "name": "credits and debits",
      "pid": 4
    }
  ],
  "contacts": [
    {
      "orca_id": 2,
      "pid": 0,
      "type": "HDN",
      "name": "TEST CONTACT"
    },
    {
      "orca_id": 3,
      "pid": 0,
      "type": "HDN",
      "name": "TEST OTHER CONTACT"
    }
  ],
  "receipts": [
    {
      "orca_id" : 4,
      "type" : 19,
      "aggtype" : 1,
      "nettype": 2,
      "pid": 0,
      "gid": -1,
      "cid": 1,
      "did": 1,
      "contid": 2,
      "amount": 100,
      "date_": "2020-05-05",
      "elekey": 0,
      "itemized": 0,
      "checkno": null,
      "description": "Debt description",
      "memo": "Even thirteen cents is too much for you",
      "carryforward": 0,
      "deptkey": 0
    },
    {
      "orca_id" : 5,
      "type" : 20,
      "aggtype" : 0,
      "nettype": 2,
      "pid": 8,
      "gid": -1,
      "cid": 1,
      "did": 1,
      "contid": 2,
      "amount": 100,
      "date_": "2020-05-05",
      "elekey": 0,
      "itemized": 0,
      "checkno": null,
      "description": "Debt Adjustment",
      "memo": "Even thirteen cents is too much for you",
      "carryforward": 0,
      "deptkey": 1588662000103
    },
    {
      "orca_id" : 6,
      "type" : 29,
      "aggtype" : 0,
      "nettype": 2,
      "pid": 8,
      "gid": -1,
      "cid": 1,
      "did": 1,
      "contid": 2,
      "amount": 100,
      "date_": "2020-05-05",
      "elekey": 0,
      "itemized": 0,
      "checkno": null,
      "description": "Debt payment",
      "memo": "Even thirteen cents is too much for you",
      "carryforward": 0,
      "deptkey": 1588662000103
    },
    {
      "orca_id" : 7,
      "type" : 44,
      "aggtype" : 0,
      "nettype": 2,
      "pid": 9,
      "gid": -1,
      "cid": 1,
      "did": 1,
      "contid": 2,
      "amount": 100,
      "date_": "2020-05-05",
      "elekey": 0,
      "itemized": 0,
      "checkno": null,
      "description": "Debt Forgiveness",
      "memo": "Even thirteen cents is too much for you",
      "carryforward": 0,
      "deptkey": 1588662000103
    }
  ],
  "debtObligations": [
    {
      "contid": 2,
      "pid": 4,
      "amount": 100.0,
      "date_": "2021-03-02",
      "descr": "some description",
      "memo": "take a memo.",
      "orca_id": 8
    },
    {
      "contid": 3,
      "pid": 4,
      "amount": 100.0,
      "date_": "2021-03-02",
      "descr": "some description",
      "memo": "take a memo.",
      "orca_id": 9
    }
  ]
}