{
  "accounts": [
    {
      "orca_id":  1,
      "name": "credits and debits",
      "pid": 4
    }
  ],
  "contacts": [
    {
      "orca_id": 2,
      "pid": 0,
      "type": "HDN",
      "name": "TEST CONTACT"
    },
    {
      "orca_id": 3,
      "pid": 0,
      "type": "HDN",
      "name": "TEST OTHER CONTACT"
    }
  ],
  "expenditureEvents": [
    {
      "orca_id": 4,
      "bnkid": 1,
      "contid": 2,
      "amount": 200.0,
      "date_": "2020-05-05",
      "itemized": 0,
      "memo": "Even thirteen cents is too much for you"
    }
  ],
  "receipts": [
    {
      "orca_id" : 101,
      "type": 28,
      "aggtype": 0,
      "nettype": 1,
      "contid": 2,
      "pid": 4,
      "gid": -1,
      "cid": 1,
      "did": 1,
      "amount": 100,
      "date_": "2020-05-05",
      "elekey": 0,
      "itemized": 0,
      "checkno": "1234",
      "description": "debt obligation",
      "memo": "A memo field",
      "carryforward": 0,
      "deptkey": 0
    },
    {
      "orca_id" : 102,
      "type": 28,
      "contid": 3,
      "aggtype": 0,
      "nettype": 1,
      "pid": 4,
      "gid": -1,
      "cid": 1,
      "did": 1,
      "amount": 100,
      "date_": "2020-05-05",
      "elekey": 0,
      "itemized": 0,
      "checkno": "1234",
      "description": "debt sub obligation",
      "memo": "A memo field",
      "carryforward": 0,
      "deptkey": 0
    },
    {
      "orca_id" : 105,
      "type" : 20,
      "aggtype" : 0,
      "nettype": 2,
      "pid": 4,
      "gid": -1,
      "cid": 1,
      "did": 1,
      "contid": 2,
      "amount": 100,
      "date_": "2020-05-05",
      "elekey": 0,
      "itemized": 0,
      "checkno": null,
      "description": "Debt Adjustment",
      "memo": "Even thirteen cents is too much for you",
      "carryforward": 0,
      "deptkey": 1588662000103
    },
    {
      "orca_id" : 106,
      "type" : 29,
      "aggtype" : 0,
      "nettype": 2,
      "pid": 4,
      "gid": -1,
      "cid": 1,
      "did": 1,
      "contid": 2,
      "amount": 100,
      "date_": "2020-05-05",
      "elekey": 0,
      "itemized": 0,
      "checkno": null,
      "description": "Debt payment",
      "memo": "Even thirteen cents is too much for you",
      "carryforward": 0,
      "deptkey": 1588662000103
    },
    {
      "orca_id" : 107,
      "type" : 44,
      "aggtype" : 0,
      "nettype": 2,
      "pid": 4,
      "gid": -1,
      "cid": 1,
      "did": 1,
      "contid": 2,
      "amount": 100,
      "date_": "2020-05-05",
      "elekey": 0,
      "itemized": 0,
      "checkno": null,
      "description": "Debt Forgiveness",
      "memo": "Even thirteen cents is too much for you",
      "carryforward": 0,
      "deptkey": 1588662000103
    }
  ]
}