{
  "accounts": [
    {
      "orca_id": 1,
      "pid": 0,
      "name": "Credit"
    },
    {
      "orca_id": 2,
      "pid": 0,
      "name": "Debit"
    },
    {
      "orca_id": 3,
      "name": "Test",
      "pid": 0
    }
  ],
  "Contacts": [
    {
      "orca_id": 3,
      "name": "Test Contact",
      "type": "HDN",
      "pid": 0
    }
  ],
  "loans": [
    {
      "orca_id": 4,
      "type": -1,
      "cid": 1,
      "did": 2 ,
      "contid": 3,
      "amount": 55.0,
      "date_": "2020-01-01",
      "elekey": -1,
      "interestrate": 75.0,
      "duedate": "2015-01-01",
      "checkno": "1205",
      "repaymentschedule": "When it freezes over",
      "description": "Tiny white mules blending",
      "memo": "Two roads diverged in a snowy wood",
      "carryforward": 0
    }
  ]
}