{
    "type": "CPL",
    "name": "Super Cool Couple",
    "street": "100 main street",
    "city": "Olympia",
    "state": "WA",
    "zip": "98501",
    "phone": "3605551212",
    "email": "user@noreply.com",
    "memo": "Couple Contact"
}