{
  "report_number": 110016650,
  "amends_report": null,
  "amended_by_report": null,
  "origin": "C3",
  "committee_id": 24118,
  "filer_id": "CULPL--166",
  "election_year": 2020,
  "type": "Candidate",
  "filer_name": "Loren D. Culp (Loren Culp)",
  "office": "GOVERNOR",
  "legislative_district": null,
  "position": null,
  "party": "REPUBLICAN",
  "ballot_number": null,
  "for_or_against": null,
  "jurisdiction": "State of Washington",
  "jurisdiction_county": null,
  "jurisdiction_type": "Statewide",
  "receipt_date": "2021-04-14",
  "filing_method": "Electronic",
  "report_from": "2021-03-23",
  "report_through": "2021-03-23",
  "url": "http://apollod8.lndo.site/public/registrations/finance-report/110016650",
  "report_data": "http://apollod8.lndo.site/public/service/reports/110016650/userdata",
  "metadata": {
    "sums": {
      "anonymous": {
        "amount": null,
        "aggregate": 58.39,
        "date": "2021-03-23"
      },
      "small": {
        "amount": 0,
        "count": null,
        "date": "2021-03-23",
        "aggregate": null
      },
      "personal": {
        "amount": 0,
        "aggregate": 0,
        "date": "2021-03-23"
      },
      "loans": {
        "amount": 0,
        "aggregate": null,
        "count": 0,
        "date": "2021-03-23"
      },
      "misc_auction": {
        "amount": 0,
        "aggregate": null,
        "count": 0,
        "date": "2021-03-23"
      },
      "itemized_contributions": {
        "amount": 50,
        "aggregate": null,
        "date": "2021-03-23",
        "count": 1
      }
    }
  },
  "schema_version": "1.0",
  "attachments": [],
  "committee_data": {
    "id": "ca-2020-25327",
    "fund_id": 481,
    "candidacy_id": 25327,
    "committee_id": 24118,
    "person_id": 25011,
    "filer_id": "CULPL--166",
    "filer_type": "CA",
    "filing_type": "Electronic",
    "pac_type": "candidate",
    "continuing": null,
    "receipt_date": "2019-07-19",
    "election_year": 2020,
    "candidate_committee_status": "Candidate registered",
    "legislative_district": null,
    "filer_name": "Loren D. Culp (Loren Culp)",
    "committee_acronym": null,
    "committee_address": "P.O. Box 1083",
    "committee_city": "republic",
    "committee_county": null,
    "committee_state": "WA",
    "committee_zip": "99166",
    "committee_email": "loren@culpforgovernor.com",
    "candidate_email": "loren@culpforgovernor.com",
    "candidate_committee_phone": "5096752412",
    "political_committee_type": "Candidate",
    "committee_category": null,
    "bonafide_committee": null,
    "bonafide_type": null,
    "ballot_number": null,
    "for_or_against": null,
    "office": "GOVERNOR",
    "office_code": "03",
    "jurisdiction": "State of Washington",
    "jurisdiction_code": 1000,
    "jurisdiction_county": null,
    "jurisdiction_type": "Statewide",
    "position": null,
    "party_code": "R",
    "party": "REPUBLICAN",
    "election_date": "2020-11-03",
    "reporting_option": "full",
    "primary_election_status": "Qualified for general",
    "general_election_status": "Lost in general",
    "election_status": null,
    "treasurer_name": "Bekki Cox",
    "treasurer_address": "1202 S 2nd St STE A",
    "treasurer_city": "Mount Vernon",
    "treasurer_state": "Washington",
    "treasurer_zip": "98273",
    "treasurer_phone": "360-419-5222",
    "exempt_nonexempt": null,
    "ballot_committee": null,
    "other_pac": "",
    "contributions_amount": "3333084.01",
    "expenditures_amount": "3332334.01",
    "loans_amount": "0.00",
    "pledges_amount": "0.0",
    "debts_amount": "0.0",
    "independent_expenditures_for_amount": "156.25",
    "independent_expenditures_against_amount": "0",
    "carryforward_amount": "100.00",
    "url": "http://apollod8.lndo.site/public/registrations/registration?registration_id=19976"
  },
  "user_data": {
    "report_type": "c3",
    "sums": {
      "anonymous": {
        "amount": null,
        "aggregate": 58.39,
        "date": null
      },
      "small": {
        "amount": null,
        "count": 0,
        "date": null
      }
    },
    "period_start": "2021-03-23",
    "period_end": "2021-03-23",
    "committee": {
      "name": "Culp for Governor",
      "address": "P.O. Box 1083",
      "city": "republic",
      "state": "WA",
      "postcode": "99166",
      "office_code": "3"
    },
    "election_code": "2020",
    "treasurer": {
      "name": "Bekki Cox",
      "date": null,
      "phone": "360-419-5222"
    },
    "contacts": [
      {
        "contact_key": "C52",
        "aggregate_general": 0,
        "aggregate_primary": 0,
        "contributor_type": "S",
        "name": "CULP LOREN",
        "address": "PO BOX 1083",
        "city": "REPUBLIC",
        "state": "WA",
        "postcode": "99166",
        "employer": {
          "name": null,
          "city": null,
          "state": null,
          "occupation": null
        }
      },
      {
        "contact_key": "C60791",
        "aggregate_general": 350,
        "aggregate_primary": 0,
        "contributor_type": "I",
        "name": "METRO MARY",
        "address": "17186 SE 58TH ST",
        "city": "BELLEVUE",
        "state": "WA",
        "postcode": "98006",
        "employer": {
          "name": "RETIRED",
          "city": null,
          "state": null,
          "occupation": "RETIRED"
        },
        "valid": true
      }
    ],
    "contributions": [
      {
        "amount": 50,
        "contact_key": "C60791",
        "date": "2021-03-19",
        "election": "G"
      }
    ],
    "election_year": "2020",
    "filer_id": "CULPL--166",
    "submitted_at": "2021-04-14"
  },
  "categorylist": [
    {
      "code": "B-ROBO",
      "label": "Robocalls"
    },
    {
      "code": "C",
      "label": "Monetary contributions to PAC or candidate"
    },
    {
      "code": "G-RENT",
      "label": "Rent, lease, mortgage, PO box rental"
    },
    {
      "code": "F",
      "label": "Fundraising events and related costs"
    },
    {
      "code": "G",
      "label": "Utilities, phone, and other overhead costs"
    },
    {
      "code": "L",
      "label": "Printing literature, fliers, postcards, etc. "
    },
    {
      "code": "O",
      "label": "Other advertising "
    },
    {
      "code": "T",
      "label": "Travel, accommodations, meals"
    },
    {
      "code": "W",
      "label": "Wages, salaries, benefits, payroll taxes"
    },
    {
      "code": "BB",
      "label": "Billboard advertising"
    },
    {
      "code": "OS-E",
      "label": "Computers, printers, software, phones, etc."
    },
    {
      "code": "D-GA",
      "label": "Design/graphic art, etc."
    },
    {
      "code": "B-DIGI",
      "label": "Digital advertising"
    },
    {
      "code": "IK",
      "label": "In-kind contributions/expenditures"
    },
    {
      "code": "MILES",
      "label": "Mileage reimbursement"
    },
    {
      "code": "OS",
      "label": "Office supplies, furniture, staff food & beverages, etc."
    },
    {
      "code": "LE",
      "label": "Payment for candidate's lost earnings"
    },
    {
      "code": "L-SIGNS",
      "label": "Printing campaign signs"
    },
    {
      "code": "B-RADIO",
      "label": "Radio advertising"
    },
    {
      "code": "B-MERCH",
      "label": "Campaign merchandise/paraphernalia"
    },
    {
      "code": "M",
      "label": "Management and consulting services"
    },
    {
      "code": "P",
      "label": "Postage costs, mail permits, purchase of stamps"
    },
    {
      "code": "V",
      "label": "Voter signature/petition gathering costs"
    },
    {
      "code": "ALRC",
      "label": "Accounting, legal, regulatory compliance, etc."
    },
    {
      "code": "FEE",
      "label": "Filing fees"
    },
    {
      "code": "INET",
      "label": "Internet, phone & text charges"
    },
    {
      "code": "S",
      "label": "Surveys, polling, research costs"
    },
    {
      "code": "G-BANK",
      "label": "Bank and payment processing charges"
    },
    {
      "code": "C-CHARITY",
      "label": "Charity"
    },
    {
      "code": "CHARITY-S",
      "label": "Disposal of surplus funds to charity"
    },
    {
      "code": "C-GEN",
      "label": "Transfer to state general fund"
    },
    {
      "code": "C-PARTY",
      "label": "Transfer to political party or legislative caucus committee"
    },
    {
      "code": "C-SURPLUS",
      "label": "Transfer to surplus funds account"
    },
    {
      "code": "C-NEW",
      "label": "Transfer to new campaign"
    },
    {
      "code": "LE-SURPLUS",
      "label": "Payment for candidate's lost earnings"
    },
    {
      "code": "B",
      "label": "Broadcast/cable TV advertising"
    },
    {
      "code": "N",
      "label": "Newspaper/periodical advertising"
    },
    {
      "code": "I",
      "label": "Independent Expenditure"
    }
  ]
}