{
  "properties": [
    {
      "name": "TEST_KEY_1",
      "value": "TEST_VALUE_1"
    },
    {
      "name": "TEST_KEY_2",
      "value": "TEST_VALUE_2"
    },
    {
      "name": "CAMPAIGNINFO:BALLOTTYPE",
      "value": "0"
    },
    {
      "name": "CAMPAIGNINFO:STARTDATE",
      "value": "2021-01-01"
    }
  ]
}