committee_id,filer_id,start_year,end_year,election_code,pac_type,src_committee_id,name,election_year,old_start_year
,ISLARL 250,2015,2015,2015,pac,,ISLAND REC LEVY COMMITTEE,2015,
,RESPW  464,2014,2014,2014,pac,,RESPECT WASHINGTON,2014,
