committee_id,filer_id,start_year,end_year,election_code,pac_type,src_committee_id,name,election_year,old_start_year
22754,23RDLDN337,2007,,,bonafide,66,23RD LEGISLATIVE DISTRICT REPUBLICAN COMMITTEE,,2019
23420,37THDL 118,2007,,,bonafide,125,37th Legislative District Democrats 2020,,2019
23342,38THDD 201,2018,,,bonafide,126,38th LD Democrats Exempt,,2019
24814,40THLD 284,2007,,,bonafide,131,40th LD Democrats,,2020
22642,COWLDC 626,2007,,,bonafide,4305,Cowlitz County Democratic Central Committee,,2019
24801,PENDOD 156,2016,,,bonafide,15035,Pend Oreille County Democrats,,2020
22569,ALLCP  040,2019,2019,2019,candidate,319,Patrick Allcorn,,2019
23359,BENNT  217,2019,2019,2019,candidate,22999,VOTE TIM BENN,,2019
23330,BLOCK  401,2019,2019,2019,candidate,1497,Committee to Elect Keith Blocker,,2019
22656,CARTJ  065,2019,2019,2019,candidate,2654,Jennifer Carter,,2019
22233,GRAHV  208,2020,2020,2020,candidate,22198,Committee to Elect Jenny Graham,,2020
23114,HARDL  569,2019,2019,2019,candidate,8031,Lorraine For Council,,2019
22333,HARRL  926,2019,2019,2019,candidate,8111,Elect Laci Harrison Fund,,2019
23194,JENSD  632,2019,2019,2019,candidate,22949,Committee to re-elect Don Jensen,,2019
23194,JENSD  632,2019,2019,2019,candidate,9576,Committee to re-elect Don Jensen,,2019
23261,KELLB  248,2019,2019,2019,candidate,10252,CITIZENS FOR BRAD KELLY,,2019
23024,KIRBT  501,2019,2019,2019,candidate,10476,CITIZENS FOR TROY KIRBY,,2019
24257,LEETJ--277,2019,2019,2019,candidate,23174,Juli Brooks Leete,,2019
23253,LIGNM  577,2019,2019,2019,candidate,23252,Michael S Lignoski's Campaign,,2019
23329,MCDAR  258,2019,2019,2019,candidate,22293,Friends of Rauchel McDaniel,,2019
22563,NEGUS--168,2019,2019,2019,candidate,22159,Senayet Negusse,,2019
23427,NHANJ  012,2019,2019,2019,candidate,13915,Jamyang4schools,,2019
25718,PINEK--629,2020,2020,2020,candidate,25717,Kevin,,2020
23215,ROACZ  301,2019,2019,2019,candidate,16511,Zahra Roach - The Committee to Elect Zahra Roach,,2019
24336,SCHNL  110,2019,2019,2019,candidate,17284,Leslie Schneider,,2019
25624,SUTTS  046,2020,2020,2020,candidate,25582,People for Shirley Sutton,,2020
22193,TOMBS  015,2019,2019,2019,candidate,19555,FRIENDS OF STAN TOMBS,,2019
23363,TUOHJ  206,2019,2019,2019,candidate,19875,Committee to Re elect Judy Tuohy,,2019
23038,18THLD 685,2007,,,pac,58,Clark County Republican 18th Legislative District Committee,,2019
23355,AFFOHC 312,2007,,,pac,186,Affordable Housing Council of the Kitsap Building Association,,2019
1529,BETTTH 501,2014,2015,,pac,1437,BETTER THURSTON,,2015
1752,BLUEST 108,2007,2008,,pac,1647,BLUE ST8 PAC,,2007
2959,CHOOR  058,2010,2010,2010,pac,,CHOOSE RENTON,,
3001,CHOOR  058,2008,2009,,pac,,CHOOSE RENTON,,
3194,CITIBB 405,2007,2009,,pac,3053,CIT FOR A BETTER BALLOT,,2007
24696,CITIBE 501,2020,2020,2020S4,pac,3055,Tumwater Citizens for Better Education,,2020
3209,CITIBT 111,2007,,,pac,3068,KEEP WASHINGTON ROLLING,,2007
3209,CITIBT 111,2007,,,pac,3069,KEEP WASHINGTON ROLLING,,2007
3209,CITIBT 111,2007,,,pac,3236,KEEP WASHINGTON ROLLING,,2007
3272,CITIFD 019,2012,2012,2012,pac,,CIT FOR FIRE DIST 45,,2008
3274,CITIFD 223,2018,,2018,pac,3158,CITIZENS FOR FIRE DISTRICT 8,,2019
3459,CITILS 261,2018,,,pac,,CITIZENS FOR LOPEZ SOLID WASTE LEVY Sponsored by Solid Waste Alternative Program (SWAP),,2012
23326,CITINS 041,2022,2022,2022S2,pac,3361,CITIZENS FOR NORTHSHORE SCHOOLS,,2022
25021,CITIRS 647,2020,2020,2020S4,pac,24196,CITIZENS FOR RIDGEFIELD SCHOOLS,,2020
3661,CLARIN 660,2012,,2012,pac,3660,CLARK COUNTY IS NOT FOR SALE,,2012
3826,CLOVPC 498,2016,2016,2016,pac,,CLOVER PARK CITIZENS COMMITTEE FOR SCHOOLS,,2008
4014,COMMSS 168,2013,2013,2013,pac,4152,COMMON SENSE SEA TAC,,2013
4156,COMMWK 672,2008,2011,,pac,4018,COMM TO WITHDRAW FROM KLICKITAT CO FIRE PROT DIST #3 & FORM A NEW FIRE PROT DIST,,2008
4021,CONCC  040,2015,2015,2015,pac,,CONCERNED CITIZENS FOR MERCER ISLAND PARKS,,2018
4161,CONCRS 507,2011,2011,2011,pac,4041,CONCERNED RESIDENTS OF SOUTH BAY FIRE DIST,,2011
5831,EYESIS 027,2016,2016,2016,pac,5962,EYES ON ISSAQUAH,,2016
5832,EYESIS 027,2019,,,pac,,EYES ON ISSAQUAH,,2019
6390,FIXIT 104,2018,,,pac,6257,FIX IT! PAC,,2018
24763,FUSEVO 101,2010,,,pac,6779,Fuse Voters,2010,
24763,FUSEVO 101,2010,,,pac,6709,Fuse Voters,2010,
24763,FUSEVO 101,2010,,,pac,6689,Fuse Voters,2016,
24763,FUSEVO 101,2010,,,pac,6710,Fuse Voters,2017,
24763,FUSEVO 101,2010,,,pac,6690,Fuse Voters,2018,
24763,FUSEVO 101,2010,,,pac,6711,Fuse Voters,2019,
15664,PROTAF 104,2015,,2015,pac,15855,Save Animals Facing Extinction,2020,
16064,REBUMP 362,2015,2015,2015,pac,16023,REBUILD MEMORIAL POOL COMMITTEE,2015,
23315,INTELW 134,2007,,,pac,9354,ILWU 19 PAC (Sponsored by ILWU),,
14757,PARKRC 104,2007,,,pac,14794,PARKS & RECREATION COMMITTEE,,
10131,KEEPCC 660,2011,,2011,pac,10088,KEEP CLARK COUNTY MOVING,,
16028,RED WB 547,2008,2011,,pac,15989,RED WHITE & BLUE REPUB WOMENS CLUB,,
19640,THURCV 501,2008,,2008,pac,19522,THURSTON CONSERVATION VOTERS,,
15401,PIERBG 417,2009,,2009,pac,15326,PIERCE COUNTY BETTER GOVERNMENT LEAGUE VOTER EDUCATIONAL FUND,,
16789,RURANP 228,2009,2011,2009,pac,16903,RURAL NEIGHBORS PAC,,
20703,WASHFS 102,2009,,2009,pac,20704,WASHINGTON FAMILIES STANDING TOGETHER,,
15669,PROTW  111,2010,,2010,pac,15859,PROTECT WASHINGTON,,
10195,KENNCL 336,2019,2019,2019,pac,,KENNEWICK CITIZENS LEVY & BOND COMMITTEE,,
26016,KENNCL 336,2020,2020,2020,pac,,KENNEWICK CITIZENS LEVY & BOND COMMITTEE,2020,
17098,SAVEL  498,2008,2010,2008,pac,17141,YES! COMMUNITY MATTERS CAMPAIGN SAVE LAKEWOOD,,
10482,KITSC  337,2011,,2011,pac,10561,KITSAPCARES,,
18277,SNO4C  524,2011,,2011,pac,18228,SNO4CITIZENS,,
6609,FRIE522858,2013,,2013,pac,6538,GMO FREE FARMERS & FRIENDS - 2015,,
20044,VANCV  663,2015,,,pac,,VANCOUVER VITALITY,,
21116,WHATCF 225,2015,,,pac,,WHATCOM COMMERCIAL FISHERMENS ASSOCIATION PAC,,
11751,LYNNCF 036,2015,,,pac,,LYNNWOOD CITIZENS FOR FIREWORKS AND FREEDOM,,
13902,NEW DP 103,2015,,,pac,,NEW DIRECTION PAC,,
21636,WORKTS 661,2015,,,pac,,WORKING TOGETHER FOR THE 17TH PAC,,
18426,SOUTKC 101,2016,,,pac,,KING COUNTY WORKING FAMILIES PAC,,
12130,MAINVW 104,2017,,,pac,,MAINSTREAM VOTERS OF WA,,
18900,SUPPMI 040,2017,,,pac,,SUPPORT MERCER ISLAND PARKS AND ARTS,,
25814,HEALE  612,2020,2020,2020,candidate,25665,Eugene L Healy,,
25900,HUGHC  245,2020,2020,2020,candidate,24316,Hughes For Council,,
25783,JOHNR  362,2020,2020,2020,candidate,25283,Committee to Reelect Randy Johnson,,
25832,PERKH--958,2020,2020,2020,candidate,25433,Committee to Elect Heather Shand Perkins for Superior Court Judge,,
25887,OPENW--444,2020,,2020,pac,25363,Open Washington,,
15017,PEOPB  148,2007,2011,,pac,,PEOPLE FOR BURIEN,,
17100,SAVEMH 212,2013,2013,,pac,,SAVE MY HOME,,
18549,STANUW 228,2013,2013,,pac,,STAND UP WHATCOM,,
20705,WASHGP 584,2016,2016,,pac,,WASHINGTON FOR GOOD POLICING,,
15723,PROSSC 350,2015,2016,,pac,,PROSSER SCHOOLS CITIZENS COMMITTEE,,
18284,SNOHCS 290,2017,2017,2017,pac,,CITIZENS FOR SNOHOMISH SCHOOLS,,
18236,SNOHCS 290,2019,2019,2019,pac,,CITIZENS FOR SNOHOMISH SCHOOLS,,
16370,RESPW  063,2015,,,pac,16372,RESPECT WASHINGTON,,
19008,STOPLR 664,2011,2011,2011,pac,,STOPPING LIGHT RAIL STOPS BRIDGE TOLLS,,
,AHERJ *203,2003,,,surplus,,AHERN JOHN E SURPLUS ACCT,2003,
,ANGEJ *367,2005,,,surplus,,ANGEL JANICE E SURPLUS ACCT,2005,
,ARMSM *801,2000,,,surplus,,ARMSTRONG MICHAEL D SURPLUS ACCT,2000,
,BENTD *668,1997,,,surplus,,BENTON DONALD M SURPLUS ACCT,1997,
,BOZEC *004,2005,,,surplus,,BOZEMAN CARY E SURPLUS ACCT,2005,
,BROWL *204,1998,,,surplus,,BROWN LISA J SURPLUS ACCT,1998,
,BURID *111,2005,,,surplus,,BURI DAVID W SURPLUS ACCT,2005,
,CAIRJ *042,1998,,,surplus,,CAIRNES JACK D SURPLUS ACCT,1998,
,CARRM *498,2004,,,surplus,,CARRELL MICHAEL J SURPLUS ACCT,2004,
,CLARS *124,2006,,,surplus,,CLARK SALLY J SURPLUS ACCT,2006,
,CLIBJ *040,2006,,,surplus,,CLIBBORN JUDITH R SURPLUS ACCT,2006,
,CONDC *807,2004,,,surplus,,CONDOTTA CARY L SURPLUS ACCT,2004,
,CRAWS *226,2000,,,surplus,,CRAWFORD SAM R SURPLUS ACCT,2000,
,CROUL *206,2000,,,surplus,,CROUSE LARRY W SURPLUS ACCT,2000,
,DELVJ *352,1996,,,surplus,,DELVIN JEROME L SURPLUS ACCT,1996,
,DICKM *103,1998,,,surplus,,DICKERSON MARY LOU SURPLUS ACCT,1998,
,DRAGJ *104,2005,,,surplus,,DRAGO JAN G SURPLUS ACCT,2005,
,DUNSH *291,2001,,,surplus,,DUNSHEE HANS M SURPLUS ACCT,2001,
,EIDET *003,1998,,,surplus,,EIDE TRACEY J SURPLUS ACCT,1998,
,ERICM *011,2006,,,surplus,,ERICKS MARK L SURPLUS ACCT,2006,
,HATFB *577,2004,,,surplus,,HATFIELD BRIAN A SURPLUS ACCT,2004,
,KIMSG *666,2000,,,surplus,,KIMSEY GREGORY A SURPLUS ACCT,2000,
,KOHLJ *119,1998,,,surplus,,KOHL-WELLES JEANNE E SURPLUS ACCT,1998,
,KRISD *291,2004,,,surplus,,KRISTIANSEN DANIEL P SURPLUS ACCT,2004,
,PRENM *178,1996,,,surplus,,PRENTICE MARGARITA L SURPLUS ACCT,1996,
,RAHRS *111,2005,,,surplus,,RAHR SUSAN L SURPLUS ACCT,2005,
,RODNJ *065,2006,,,surplus,,RODNE JAY R SURPLUS ACCT,2006,
,ROMES *506,1998,,,surplus,,ROMERO SANDRA J SURPLUS ACCT,1998,
,SCHIL *027,1998,,,surplus,,SCHINDLER LYNN E SURPLUS ACCT,1998,
,SHINP *275,1999,,,surplus,,SHIN PAULL H SURPLUS ACCT,1999,
,SWECD *579,2004,,,surplus,,SWECKER DANIEL P SURPLUS ACCT,2004,
,SUTHD *465,1996,,,surplus,,SUTHERLAND DOUGLASS B SURPLUS ACCT,1996,
,SULLB *275,2002,,,surplus,,SULLIVAN BRIAN JAMES SURPLUS ACCT,2002,
,SONNB *466,1998,,,surplus,,SONNTAG BRIAN S SURPLUS ACCT,1998,
,SOMMH *199,1998,,,surplus,,SOMMERS HELEN E SURPLUS ACCT,1998,
,SKINM *908,2002,,,surplus,,SKINNER MARY K SURPLUS ACCT,2002,
,SIMPG *042,2003,,,surplus,,SIMPSON GEOFFREY H SURPLUS ACCT,2003,
,ROCKW *110,2000,,,surplus,,ROCKEFELLER W PHILLIPS SURPLUS ACCT,2000,
,REEDS *501,1998,,,surplus,,REED SAM S SURPLUS ACCT,1998,
,RASMM *328,2005,,,surplus,,RASMUSSEN MARILYN J SURPLUS ACCT,2005,
,PRIEM *023,2004,,,surplus,,PRIEST MAHLON S SURPLUS ACCT,2004,
,POULE *116,1998,,,surplus,,POULSEN ERIK E SURPLUS ACCT,1998,
,PHILL *199,1999,,,surplus,,PHILLIPS LAWRENCE R SURPLUS ACCT,1999,
,PEARKJ*272,2001,,,surplus,,PEARSON KIRK J SURPLUS ACCT,2001,
,PATTJ *188,1998,,,surplus,,PATTERSON JULIA L SURPLUS ACCT,1998,
,OWENB *584,2002,,,surplus,,OWEN BRADLEY S SURPLUS ACCT,2002,
,MURRE *122,2000,,,surplus,,MURRAY EDWARD B SURPLUS ACCT,2000,
,MOELJ *663,2004,,,surplus,,MOELLER JAMES C SURPLUS ACCT,2004,
,MCKER *006,2003,,,surplus,,MCKENNA ROBERT M SURPLUS ACCT,2003,
,MCINJ *115,1998,,,surplus,,MCINTIRE JAMES L SURPLUS ACCT,1998,
,MCCAB *206,2000,,,surplus,,MCCASLIN BOB L SURPLUS ACCT,2000,
,LINVK *225,1998,,,surplus,,LINVILLE KELLI J SURPLUS ACCT,1998,
,LADEJ *408,2005,,,surplus,,LADENBURG JOHN W SURPLUS ACCT,2005,
,KESSL *550,1996,,,surplus,,KESSLER LYNN E SURPLUS ACCT,1996,
,KENNP *115,1998,,,surplus,,KENNEY PHYLLIS G SURPLUS ACCT,1998,
,KAGIR *155,2004,,,surplus,,KAGI RUTH LECOCQ SURPLUS ACCT,2004,
,JARRF *040,2002,,,surplus,,JARRETT FRED SURPLUS ACCT,2002,
,HONEJ *944,1998,,,surplus,,HONEYFORD JAMES D SURPLUS ACCT,1998,
,HEWIM *362,2004,,,surplus,,HEWITT MICHAEL D SURPLUS ACCT,2004,
,HANKS *352,1995,,,surplus,,HANKINS SHIRLEY W SURPLUS ACCT,1995,
,HAIGK *584,1998,,,surplus,,HAIGH KATHRYN M SURPLUS ACCT,1998,
,GRANW *362,2002,,,surplus,,GRANT WILLIAM A SURPLUS ACCT,2002,
,GOSSL *122,1998,,,surplus,,GOSSETT LARRY E SURPLUS ACCT,1998,
,GOINC *373,2005,,,surplus,,GOINGS CALVIN W SURPLUS ACCT,2005,
,FROMC *664,2002,,,surplus,,FROMHOLD CHARLES BILL W SURPLUS ACCT,2002,
,FAIRD *155,2006,,,surplus,,FAIRLEY DARLENE SURPLUS ACCT,2006,
,CLEMJ *942,1996,,,surplus,,CLEMENTS JAMES A SURPLUS ACCT,1996,
,BRAND *226,2006,,,surplus,,BRANDLAND DALE E SURPLUS ACCT,2006,
,ANDEE *027,2001,,,surplus,,ANDERSON EDWIN GLENN SURPLUS ACCT,2001,
,ZAREJ *685,2000,,,surplus,,ZARELLI JOSEPH P SURPLUS ACCT,2000,
,WYMAK *513,2003,,,surplus,,WYMAN KIMBERLEY M SURPLUS ACCT,2003,
,WOLFB *661,2005,,,surplus,,WOLFE BRIAN H SURPLUS ACCT,2005,
,WILLB *501,2006,,,surplus,,WILLIAMS BRENDAN W SURPLUS ACCT,2006,
,UPTHD *198,2002,,,surplus,,UPTHEGROVE DAVID P SURPLUS ACCT,2002,
24187,PARKRI-133,2019,2019,2019,pac,,Parks and Rec Invest Now,,
8995,HOMEFU 501,2016,,2016,pac,,THE HOME FUND,,
,LIBRLC 111,2017,2018,2017,pac,,YES SEATTLE LIBRARIES,2017,
11414,LIBRLC 111,2019,2019,2019P,pac,,YES SEATTLE LIBRARIES,,
22032,YES GK 545,2016,2016,2016S4,pac,,YES FOR GRAPEVIEW STUDENTS,,
14059,NO1631507,2018,2018,2018,pac,,NO ON 1631 (SPONSORED BY WESTERN STATES PETROLEUM ASSOCIATION),,
,SAVEOC 116,2014,,2014,pac,,SAVE OUR CHOICE,2019,
20711,WASHMB 107,2015,,,pac,,WASHINGTON MORTGAGE BANKERS ASSOCIATION PAC,,
5332,EASTV4 216,2015,2016,,pac,,EAST VALLEY 4 EDUCATION LEVY COMMITTEE,,
,EASTV4 216,2017,2017,2017,pac,,EAST VALLEY 4 EDUCATION LEVY COMMITTEE,2017,
15025,PEOPOP 111,2009,2012,,pac,,PEOPLE FOR OUR PUBLIC SCHOOLS,,
,PROFFK 383,2012,,,pac,,PROFESSIONAL FIREFIGHTERS OF KITSAP CO,2019,
,WASHUM 111,2011,2011,,pac,,WA UNITED FOR MARRIAGE,2011,
,WASTCA 166,2013,2013,,pac,,WA ST COALITION TO AMEND THE CONSTITUTION,2013,
21116,WHATCF 225,2014,,,pac,,WHATCOM COMMERCIAL FISHERMENS ASSOCIATION PAC,,
,OUR WA 109,2013,,,pac,,OUR WASHINGTON,2019,
,NOCOAL 225,2011,2011,,pac,,NO COAL,2011,
,PROTOG 005,2015,,,pac,,PROTECT OUR GUN RIGHTS,2019,
,YES SJ 109,2011,2011,,pac,,YES FOR SCHOOLS & JOBS,2011,
,TUKWSA 168,2016,,2016,pac,,TUKWILA SCHOOLS ADVISORY COUNCIL,2019,
,SAVEG  275,2013,,,pac,,SAVE THE GULCH,2019,
,WORKF5 109,2013,,,pac,,WORKING FAMILIES FOR THE 5TH DIST,2019,
,OUR WO 362,2012,,,pac,,OUR WATER OUR CHOICE PAC,2019,
,FRANT  464,2015,2015,2015,candidate,,FRANKLIN T'WINA,2015,
,CITINS 041,2018,2018,2018,pac,,CIT FOR NORTHSHORE SCHOOLS,2018,
,CITIPS 528,2013,,,pac,,CIT FOR PUBLIC SAFETY BELFAIR,2019,
,CITIRA 036,2011,2011,,pac,,CIT FOR RESPONSIBLE ANNEXATIONS,2011,
123,35THLD 502,2007,,,pac,,35TH LEGISLATIVE DISTRICT REPUBLICAN COMMITTEE,,
2,VOTEWM 207,2017,,,pac,,PERMANENT OFFENSE - $30 TABS INITIATIVE - VOTERS WANT MORE CHOICES,,
,VOTEWM 207,2008,2008,,pac,,VOTERS WANT MORE CHOICES PAC,,
,VOTEWM2207,2012,,,pac,,VOTERS WANT MORE CHOICES - NO NEW TAXES 2012 (JACK FAGAN),2012,
,ENVISP 202,2010,2010,,pac,,ENVISION SPOKANE POLITICAL COMM,2010,
22711,CITICG 663,2022,2022,2022S2,pac,,Citizens Committee for Good Schools,,
24563,CITICG 663,2020,2020,2020S2,pac,,Citizens Committee for Good Schools,,
