{
  "config": {
    "cf_imaged_documents_and_reports_ax": {
      "enabled": true,
      "config": {
        "changes": [
          {
            "schema": "public",
            "table": "ax_document",
            "changes": ["insert", "update"],
            "columns": ["docid"],
            "event": "updateReportData"
          },
          {
            "schema" : "public",
            "table": "ax_document",
            "changes": ["delete"],
            "columns": ["docid"],
            "event": "deleteReportData"
          }
        ],
        "events": {
          "updateReportData": {
            "type": "upsert",
            "dataset": "cf_imaged_documents_and_reports",
            "source": "select * from od_imaged_documents_and_reports_ax where id = concat(cast($1 as text), '.image')",
            "criteria": ["docid"]
          },
          "deleteReportData": {
            "type": "delete",
            "dataset": "cf_imaged_documents_and_reports",
            "source": "select id where id=$1||'.image'",
            "criteria": ["docid"]
          }
        }
      }
    }
  },
  "data_sets": {
    "cf_imaged_documents_and_reports": {
      "live": "j78t-andi",
      "demo": "xxxx-xxxx"
    }
  }
}

