{
  "config": {
    "cf_imaged_documents_and_reports_attachments": {
      "enabled": true,
      "config": {
        "changes": [
          {
            "schema": "public",
            "table": "attachment",
            "changes": ["insert"],
            "columns": ["attachment_id"],
            "event": "newAttachmentData",
            "filter": {
              "target_type": "reporting_modification"
            }
          },
          {
            "schema": "public",
            "table": "attachment",
            "changes": ["update"],
            "columns": ["attachment_id"],
            "event": "replaceAttachmentData"
          },
          {
            "schema" : "public",
            "table": "attachment",
            "changes": ["delete"],
            "columns": ["attachment_id"],
            "event": "deleteAttachmentData"
          },
          {
            "schema": "public",
            "table": "reporting_modification",
            "changes": ["update"],
            "columns": ["reporting_mod_id"],
            "event": "updateReportingModData"
          }
        ],
        "events": {
          "newAttachmentData": {
            "type": "upsert",
            "dataset": "cf_imaged_documents_and_reports",
            "source": "select * from od_imaged_documents_and_reports_attachments where id = concat(cast($1 as text), '.attachment')",
            "criteria": ["attachment_id"]
          },
          "replaceAttachmentData": {
            "id": "id",
            "type": "replace",
            "dataset": "cf_imaged_documents_and_reports",
            "source": "select * from od_imaged_documents_and_reports_attachments where id = concat(cast($1 as text), '.attachment')",
            "destination": "select id where id=\"$1.attachment\"",
            "criteria": ["attachment_id"]
          },
          "deleteAttachmentData": {
            "type": "delete",
            "dataset": "cf_imaged_documents_and_reports",
            "source": "select id where id=\"$1.attachment\"",
            "criteria": ["attachment_id"]
          },
          "updateReportingModData": {
            "type": "upsert",
            "dataset": "cf_imaged_documents_and_reports",
            "source": "select * from od_imaged_documents_and_reports_attachments where report_number = concat(cast($1 as text), '.reporting_mod')",
            "criteria": ["reporting_mod_id"]
          }
        }
      }
    }
  },
  "data_sets": {
    "cf_imaged_documents_and_reports": {
      "live": "j78t-andi",
      "demo": "xxxx-xxxx"
    }
  }
}

