{
  "config": {
    "cf_independent_expenditures": {
      "enabled": true,
      "config": {
        "changes": [
          {
            "schema" : "public",
            "table": "c6_reports",
            "changes": ["insert"],
            "columns": ["repno"],
            "event": "newReportsData"
          },
          {
            "schema" : "public",
            "table": "c6_reports",
            "changes": ["update"],
            "columns": ["repno"],
            "event": "replaceReportsData"
          },
          {
            "schema" : "public",
            "table": "c6_reports",
            "changes": ["delete"],
            "columns": ["repno"],
            "event": "deleteReportsData"
          },
          {
            "schema" : "public",
            "table": "c6_identified_entity",
            "changes": ["update"],
            "columns": ["repno"],
            "event": "updateReportsData"
          }
        ],
        "events": {
          "newReportsData": {
            "type": "upsert",
            "dataset": "cf_independent_expenditures",
            "source": "select * from od_independent_expenditures where report_number=$1",
            "criteria": ["repno"]
          },
          "deleteReportsData": {
            "type": "delete",
            "dataset": "cf_independent_expenditures",
            "source": "select id where report_number=$1",
            "criteria": ["repno"]
          },
          "updateReportsData": {
            "type": "upsert",
            "dataset": "cf_independent_expenditures",
            "source": "select * from od_independent_expenditures where report_number=$1",
            "criteria": ["repno"]
          },
          "replaceReportsData": {
            "type": "replace",
            "dataset": "cf_independent_expenditures",
            "source": "select * from od_independent_expenditures where report_number=$1",
            "destination": "select id where report_number=$1",
            "criteria": ["repno"]
          }
        }
      }
    }
  },
  "data_sets": {
    "cf_independent_expenditures": {
      "live": "67cp-h962",
      "demo": "xxxx-xxxx"
    }
  }
}

