{
  "config": {
    "cf_pledges_reporting_history": {
      "enabled": true,
      "config": {
        "changes": [
          {
            "schema": "public",
            "table": "report",
            "changes": ["insert"],
            "columns": ["report_id"],
            "event": "newPledgesData",
            "filter": {
              "report_type": "C4"
            }
          },
          {
            "schema": "public",
            "table": "report",
            "changes": ["update"],
            "columns": ["report_id"],
            "event": "replacePledgesData",
            "filter": {
              "report_type": "C4"
            }
          },
          {
            "schema": "public",
            "table": "report",
            "changes": ["delete"],
            "columns": ["report_id"],
            "event": "deletePledgesData",
            "filter": {
              "report_type": "C4"
            }
          },
          {
            "schema": "public",
            "table": "contribution",
            "changes": ["update"],
            "columns": ["transaction_id"],
            "event": "updatePledgesData"
          }
        ],
        "events": {
          "newPledgesData": {
            "type": "upsert",
            "dataset": "cf_pledges",
            "source": "select * from od_pledges_by_report_id($1)",
            "criteria": ["report_id"]
          },
          "deletePledgesData": {
            "type": "delete",
            "dataset": "cf_pledges",
            "source": "select id where report_number=$1",
            "criteria": ["report_id"]
          },
          "updatePledgesData": {
            "type": "upsert",
            "dataset": "cf_pledges",
            "source": "select * from od_pledges_by_id($1)",
            "criteria": ["transaction_id"]
          },
          "replacePledgesData": {
            "type": "replace",
            "dataset": "cf_pledges",
            "source": "select * from od_pledges_by_report_id($1)",
            "destination": "select id where report_number=$1",
            "criteria": ["report_id"]
          }
        }
      }
    }
  },
  "data_sets": {
    "cf_pledges": {
      "live": "8bva-rkeb",
      "demo": "xxxx-xxxx"
    }
  }
}


