filer_id,election_year,repno,ident,form_type,auct_date,con_name,con_addr,con_city,con_st,con_zip4,con_pg,con_aggre,auctions_con_location_id,con_occ,con_emp,con_emp_city,con_emp_st,buy_name,buy_addr,buy_city,buy_st,buy_zip4,buy_pg,buy_aggre,auctions_buyer_location_id,buy_occ,buy_emp,buy_emp_city,buy_emp_st,item_desc,fair_mkt,sale_amt,con_type,buy_type
TEST##001,2019,-100952593,-73483,AU,2019-12-12 00:00:00,BABIC JOANNE,,TACOMA,WA,,N,20.00,C4ADF3ABB131D1BF05D4F1B3A908D617ED23D1D6,,,,,COOK YANAH,33414 74TH AVE S,ROY,WA,98580,,20.00,66256326014B8CDA19860609E3653F7CFDD70E23,,,,,HOT CHOCOLATE CAKE,20.00,20.00,,
TEST##001,2019,-100952593,-73484,AU,2019-12-12 00:00:00,WRIGHT WENDY,7216 25TH E,TACOMA,WA,98404,N,47.00,D5525730A0E9B62ECE22551DCE8511750F849883,,,,,BURNS KIT,P.O. BOX 2341,TACOMA,WA,98401,,137.00,449CF4E112358DC4E0C045CE95BD2A5C952047CC,ARCHITECT,BLRB ARCHITECTS,,,PUMPKIN PIE,10.00,20.00,,
TEST##001,2019,-100952593,-73485,AU,2019-12-12 00:00:00,WRIGHT WENDY,7216 25TH E,TACOMA,WA,98404,N,47.00,D5525730A0E9B62ECE22551DCE8511750F849883,,,,,ANDREJEWSKI JULIE,,TACOMA,WA,,,10.00,C4ADF3ABB131D1BF05D4F1B3A908D617ED23D1D6,,,,,PUMPKIN PIE,10.00,20.00,,
TEST##001,2019,-100952593,-73486,AU,2019-12-12 00:00:00,JACKSON TERESE,3132 VIEWMONT ST,TACOMA,WA,98407,N,67.00,CAE7950AE6AF56C34392A0CDFD57C989FA09B5E3,,,,,WICKA KARRI,"1200 25TH AVE. SE,",PUYALLUP,WA,98374,,60.00,97185E6E57DDCB8E4B28CFEA253E1960E58847B1,,,,,GERMAN CHOC CAKE,20.00,80.00,,
TEST##001,2019,-100952593,-73487,AU,2019-12-12 00:00:00,SABDROWSKI DIANE,3615 N. 8TH,TACOMA,WA,98406,N,45.00,66584D4BCD46052C0196717AC0BFF00D9DB79547,,,,,LOPEZ KIM,821 SOUTH WAY SW,LAKEWOOD,WA,98409,,605.00,0A03D45DAE14A276875816F61DD8206E1310E056,RETIRED,,,,RUM CAKE,45.00,150.00,,
TEST##001,2019,-100952593,-73488,AU,2019-12-12 00:00:00,ORLANDO KATHY,3315 N CHEYENNE,TACOMA,WA,98407,N,1515.00,D4767ABBDE2FB6FC3EDA9A0EA8E5F78C46E21F98,RETIRED,,,,ANDERSON TONY,919 136TH ST,TACIOMA,WA,98444,,30.00,262573E080A40DFDA203A193EDB8DC1252F6884A,,,,,PB CUP COOKIES,15.00,45.00,,
TEST##001,2019,-100952593,-73489,AU,2019-12-12 00:00:00,POWER COLLEEN,3202 SOUTH MASON,TACOMA,WA,98409,N,67.00,C7730CFD38C310D27824101F56B7A4F8BB098E1A,,,,,MARTINEZ DEREK,1314 S 15TH ST,TACOMA,WA,98405,,27.00,A22F9A98D4D68E15CBAE77A25F449CD85C30D73A,,,,,BLACK FOREST CAKE,65.00,40.00,,
TEST##001,2019,-100952593,-73490,AU,2019-12-12 00:00:00,RUMBAUGH SARAH,4564 HERON RIDGE DR NE,TACOMA,WA,98422,N,150.00,ACF7CAF92F24767AE61FD2788B423E11C92BF84E,SELF EMPLOYED,SARAH RUMBAUGH,,,BUSHNELL JOE,2802 47TH ST NE,TACOMA,WA,98422,,40.00,B4459AE865A8AB5B8C868227B9F3F76991A09672,,,,,CHOCOLATE RUFFLE CAKE,30.00,70.00,,
TEST##001,2019,-100952593,-73491,AU,2019-12-12 00:00:00,MITCHELL JEANNIE,8802 MEADOW RD SW,LAKEWOOD,WA,98499,N,30.00,164B7FDD23A710C3025067FEE414959B42E9DB48,,,,,FARRELL TIMOTHY,413 SOUTH M ST,TACOMA,WA,98405,,197.00,24861F1E62F36F09015A3E4B31B0C31ECA8A3908,POLICY,PIERCE CO DEPT. OF HEALTH,,,YULE LOG CAKE,30.00,150.00,,
TEST##001,2019,-100952593,-73492,AU,2019-12-12 00:00:00,THIESSEN JANET,3421 N 29TH,TACOMA,WA,98407,N,280.00,108C46716B89488437A3368BF8E0A1B5126E736C, NOT EMPLOYED,NONE,,,RUMBAUGH SARAH,4564 HERON RIDGE DR NE,TACOMA,WA,98422,,150.00,ACF7CAF92F24767AE61FD2788B423E11C92BF84E,SELF EMPLOYED,SARAH RUMBAUGH,,,NANAIMO BARS,30.00,100.00,,
TEST##001,2019,-100952593,-73493,AU,2019-12-12 00:00:00,HINES JOHN,801 N HUSON,TACOMA,WA,98406,N,47.00,0A1E80E843D8E3C603A324FF1EFCDA24250CD911,,,,,BROWN CASSANDRA,8213 S SHERIDAN AVE,TACOMA,WA,98408,,10.00,FDCFDA5253C6F325DBA4D678905A28A0C7CE3836,,,,,RED VELVET CAKE,20.00,30.00,,
TEST##001,2019,-100952593,-73494,AU,2019-12-12 00:00:00,ARCHIE JEANNIE,10006 255TH ST CT E,GRAHAM,WA,98338,N,28.00,E63E37E73DA42845ACCDE980CB14AA3097F4E4EB,,,,,CAMPBELL MARTY,4020 E K ST,TACOMA,WA,98404,,97.00,568657C96769A8EE8973D5071E4A8ACB1D964AA4,,,,,FRUIT CHEESE CAKE,28.00,125.00,,
TEST##001,2019,-100952593,-73495,AU,2019-12-12 00:00:00,LOPEZ EVELYN,2208 N BRISTOL ST,TACOMA,WA,98406,N,185.00,79D94983D1026BBBD451EDE45DC7448A8A01BB7C,RETIRED,,,,USHKA CATHERINE,4020 E K ST,TACOMA,WA,98404,,80.00,568657C96769A8EE8973D5071E4A8ACB1D964AA4,,,,,MEXICAN BROWNIES AND BLING,35.00,75.00,,
TEST##001,2019,-100952593,-73496,AU,2019-12-12 00:00:00,REMAGEN SHARON,18204 B STREET E,SPANAWAY,WA,00000,N,55.00,AFE2964325E3EF6672421BBE0D2E70525EC69EFF,,,,,PEARSALL-STIPEK CATHY,2604 S 26TH ST,TACOMA,WA,98409,,57.00,D0D5BC6AD24AB5C1624935BA45E70F3E0BB71B28,,,,,BANANA BREAD,15.00,45.00,,
TEST##001,2019,-100952593,-73497,AU,2019-12-12 00:00:00,SCHRIER KIM,1445 N MALL ST,ISSAQUAH,WA,98027,N,35.00,456481C411A9A0508BC299E43C49CF5F601CF813,,,,,USHKA CATHERINE,4020 E K ST,TACOMA,WA,98404,,80.00,568657C96769A8EE8973D5071E4A8ACB1D964AA4,,,,,TEASE CHOCOLATES BASKET,35.00,75.00,,
TEST##001,2019,-100952593,-73498,AU,2019-12-12 00:00:00,29TH LD DEMOCRATS,12180 PARK AVE S HALL ROOM 346-2,TACOMA,WA,98408,N,70.00,2283E09BD899ED9C0F0FAB09AEA747B27EEE75D6,,,,,HITCHEN JANI,707 POLK ST. S,TACOMA,WA,98445,,50.00,CA37AC1EF691B7C3622BF2701CEF7E900756E0AF,,,,,LARGE CAKE,250.00,70.00,,
