repno,superseded,filer_id,election_year,date_filed,form,perfrom,perthru,record_type,form_type,entity_code,filer_name,address1,address2,city,state,postcode,office_code,treasurer_name,treasurer_date,treasurer_phone,type,code,final_report,primary_election,general_election,candidate_name,ind_exp,howfiled
-100242223,,COPPL  366,2007,2008-02-08 00:00:00,C4,2008-01-01 00:00:00,2008-01-31 00:00:00,CVR,C4,LO,COPPOLA LAWRENCE F,PO BOX 1101,,PORT ORCHARD,WA,983660030,31,CHRISTINE JENNIFER,,3608767900,,,,1,1,LAWRENCE "LARY" COPPOLA,0,e
-100239739,,COPPL  366,2007,2008-01-09 00:00:00,C4,2007-12-01 00:00:00,2007-12-31 00:00:00,CVR,C4,LO,COPPOLA LAWRENCE F,PO BOX 1101,,PORT ORCHARD,WA,983660030,31,CHRISTINE JENNIFER,,3608767900,,,,1,1,LAWRENCE "LARY" COPPOLA,0,e
-100236001,,COPPL  366,2007,2007-12-04 00:00:00,C4,2007-10-30 00:00:00,2007-11-30 00:00:00,CVR,C4,LO,COPPOLA LAWRENCE F,PO BOX 1101,,PORT ORCHARD,WA,983660030,31,CHRISTINE JENNIFER,,3608767900,,,,1,1,LAWRENCE "LARY" COPPOLA,0,p
-100233814,,COPPL  366,2007,2007-11-05 00:00:00,C3,2007-11-02 00:00:00,2007-11-02 00:00:00,CVR,C3,LO,COPPOLA LAWRENCE F,PO BOX 1101,,PORT ORCHARD,WA,983660030,31,CHRISTINE JENNIFER,,3608767900,,,,,,,0,e
-100232287,,COPPL  366,2007,2007-10-29 00:00:00,C4,2007-10-10 00:00:00,2007-10-29 00:00:00,CVR,C4,LO,COPPOLA LAWRENCE F,PO BOX 1101,,PORT ORCHARD,WA,983660030,31,CHRISTINE JENNIFER,,3608767900,,,,1,,LAWRENCE "LARY" COPPOLA,0,e
-100232285,,COPPL  366,2007,2007-10-29 00:00:00,C3,2007-10-26 00:00:00,2007-10-26 00:00:00,CVR,C3,LO,COPPOLA LAWRENCE F,PO BOX 1101,,PORT ORCHARD,WA,983660030,31,CHRISTINE JENNIFER,,3608767900,,,,,,,0,e
-100231034,,COPPL  366,2007,2007-10-19 00:00:00,C3,2007-10-19 00:00:00,2007-10-19 00:00:00,CVR,C3,LO,COPPOLA LAWRENCE F,PO BOX 1101,,PORT ORCHARD,WA,983660030,31,CHRISTINE JENNIFER,,3608767900,,,,,,,0,e
-100230625,,COPPL  366,2007,2007-10-16 00:00:00,C4,2007-09-01 00:00:00,2007-10-09 00:00:00,CVR,C4,LO,COPPOLA LAWRENCE F,PO BOX 1101,,PORT ORCHARD,WA,983660030,31,CHRISTINE JENNIFER,,3608767900,,,,1,,LAWRENCE "LARY" COPPOLA,0,e
-100228464,,COPPL  366,2007,2007-10-06 00:00:00,C4,2007-08-14 00:00:00,2007-08-31 00:00:00,CVR,C4,LO,COPPOLA LAWRENCE F,PO BOX 1101,,PORT ORCHARD,WA,983660030,31,CHRISTINE JENNIFER,,3608767900,,,,1,,LAWRENCE "LARY" COPPOLA,0,e
-100228463,,COPPL  366,2007,2007-10-06 00:00:00,C4,2007-07-25 00:00:00,2007-08-13 00:00:00,CVR,C4,LO,COPPOLA LAWRENCE F,PO BOX 1101,,PORT ORCHARD,WA,983660030,31,CHRISTINE JENNIFER,,3608767900,,,,1,,LAWRENCE "LARY" COPPOLA,0,e
-100228462,,COPPL  366,2007,2007-10-06 00:00:00,C4,2007-06-01 00:00:00,2007-07-24 00:00:00,CVR,C4,LO,COPPOLA LAWRENCE F,PO BOX 1101,,PORT ORCHARD,WA,983660030,31,CHRISTINE JENNIFER,,3608767900,,,,1,,LAWRENCE "LARY" COPPOLA,0,e
-100228380,,COPPL  366,2007,2007-10-05 00:00:00,C3,2007-10-05 00:00:00,2007-10-05 00:00:00,CVR,C3,LO,COPPOLA LAWRENCE F,PO BOX 1101,,PORT ORCHARD,WA,983660030,31,CHRISTINE JENNIFER,,3608767900,,,,,,,0,e
-100227760,,COPPL  366,2007,2007-10-01 00:00:00,C3,2007-09-28 00:00:00,2007-09-28 00:00:00,CVR,C3,LO,COPPOLA LAWRENCE F,PO BOX 1101,,PORT ORCHARD,WA,983660030,31,CHRISTINE JENNIFER,,3608767900,,,,,,,0,e
-100955970,,PHYSEP 121,2023,2020-02-05 00:00:00,C4,2020-01-01 00:00:00,2020-01-31 00:00:00,CVR,C4,PO,PHYSICIANS EYEPAC - WASHINGTON ACADEMY OF PHYSICIANS & SURGEONS,2001 6TH AVE STE 2700,,SEATTLE,WA,98121,,JAQUELINE WONG,,2064419762,,,,,,,0,e
-100955969,,PHYSEP 121,2023,2020-02-05 00:00:00,C3,2020-01-31 00:00:00,2020-01-31 00:00:00,CVR,C3,PO,PHYSICIANS EYEPAC - WASHINGTON ACADEMY OF PHYSICIANS & SURGEONS,2001 6TH AVE STE 2700,,SEATTLE,WA,98121,,JAQUELINE WONG,,2064419762,,,,,,,0,e
-100955968,,PHYSEP 121,2023,2020-02-05 00:00:00,C3,,,CVR,C3,PO,PHYSICIANS EYEPAC - WASHINGTON ACADEMY OF PHYSICIANS & SURGEONS,2001 6TH AVE STE 2700,,SEATTLE,WA,98121,,JAQUELINE WONG,,2064419762,,,,,,,0,p
