filer_id,election_year,ident,repno,form_type,line_item,sum_date,rec_type,amount,aggregate,pers_count,
TEST##001,2019,-8058801,-100905853,C3,1A,2019-05-31 00:00:00,SUM,0.00,0.00,,
TEST##001,2019,-8058802,-100905853,C3,1B,2019-05-31 00:00:00,SUM,500.00,600.00,,
TEST##001,2019,-8058803,-100905853,C3,1C,2019-05-31 00:00:00,SUM,0.00,0.00,,
TEST##001,2019,-8058804,-100905853,C3,1D,2019-05-31 00:00:00,SUM,0.00,0.00,,
TEST##001,2019,-8058805,-100905853,C3,1E,2019-05-31 00:00:00,SUM,0.00,0.00,24,
TEST##001,2019,-8058806,-100905853,C3,2,2019-05-31 00:00:00,SUM,1125.00,0.00,,
TEST##001,2019,-8058991,-100905868,C4,1,2019-05-31 00:00:00,SUM,100.00,,5,
TEST##001,2019,-8059006,-100905868,C4,10,2019-05-31 00:00:00,SUM,0.00,,,
TEST##001,2019,-8059007,-100905868,C4,11,2019-05-31 00:00:00,SUM,1184.40,,,
TEST##001,2019,-8059008,-100905868,C4,12,2019-05-31 00:00:00,SUM,7944.75,,,
TEST##001,2019,-8059009,-100905868,C4,13,2019-05-31 00:00:00,SUM,9129.15,0.00,','
TEST##001,2019,-8059010,-100905868,C4,14,2019-05-31 00:00:00,SUM,0.00,,'10,10'
TEST##001,2019,-8059011,-100905868,C4,15,2019-05-31 00:00:00,SUM,0.00,,,
TEST##001,2019,-8059012,-100905868,C4,16,2019-05-31 00:00:00,SUM,0.00,0.00,,
TEST##001,2019,-8059013,-100905868,C4,17,2019-05-31 00:00:00,SUM,9129.15,0.00,,
TEST##001,2019,-8059014,-100905868,C4,18,2019-05-31 00:00:00,SUM,21440.93,0.00,,
TEST##001,2019,-8059015,-100905868,C4,19,2019-05-31 00:00:00,SUM,0.00,,,
TEST##001,2019,-8058992,-100905868,C4,2.A1.1,2019-05-16 00:00:00,SUM,3500.00,,,
TEST##001,2019,-8058993,-100905868,C4,2.A1.2,2019-05-17 00:00:00,SUM,4000.00,,,
TEST##001,2019,-8058994,-100905868,C4,2.A1.3,2019-05-19 00:00:00,SUM,2700.00,,,
TEST##001,2019,-8058995,-100905868,C4,2.A1.4,2019-05-28 00:00:00,SUM,8700.00,,,
TEST##001,2019,-8058996,-100905868,C4,2.A1.5,2019-05-31 00:00:00,SUM,1625.00,,,
TEST##001,2019,-8058997,-100905868,C4,2.A1.6,2019-05-30 00:00:00,SUM,2000.00,,,
TEST##001,2019,-8058998,-100905868,C4,2.A1.7,2019-05-31 00:00:00,SUM,0.33,,,
TEST##001,2019,-8059016,-100905868,C4,20,2019-05-31 00:00:00,SUM,21440.93,0.00,,
TEST##001,2019,-8058999,-100905868,C4,3,2019-05-31 00:00:00,SUM,7944.75,,,
TEST##001,2019,-8059000,-100905868,C4,4,2019-05-31 00:00:00,SUM,30470.08,0.00,,
TEST##001,2019,-8059001,-100905868,C4,5,2019-05-31 00:00:00,SUM,0.00,,,
TEST##001,2019,-8059002,-100905868,C4,6,2019-05-31 00:00:00,SUM,0.00,,,
TEST##001,2019,-8059003,-100905868,C4,7,2019-05-31 00:00:00,SUM,0.00,0.00,,
TEST##001,2019,-8059004,-100905868,C4,8,2019-05-31 00:00:00,SUM,30570.08,0.00,,
TEST##001,2019,-8059005,-100905868,C4,9,2019-05-31 00:00:00,SUM,0.00,,,
